// Jest Snapshot v1, https://goo.gl/fbAQLP

exports[`SimpleTooltip should match snapshot 1`] = `
<span
  onBlur={[Function]}
  onFocus={[Function]}
  onMouseEnter={[Function]}
  onMouseLeave={[Function]}
>
  content mock
</span>
`;
